\relax 
\providecommand\hyper@newdestlabel[2]{}
\providecommand\HyperFirstAtBeginDocument{\AtBeginDocument}
\HyperFirstAtBeginDocument{\ifx\hyper@anchor\@undefined
\global\let\oldcontentsline\contentsline
\gdef\contentsline#1#2#3#4{\oldcontentsline{#1}{#2}{#3}}
\global\let\oldnewlabel\newlabel
\gdef\newlabel#1#2{\newlabelxx{#1}#2}
\gdef\newlabelxx#1#2#3#4#5#6{\oldnewlabel{#1}{{#2}{#3}}}
\AtEndDocument{\ifx\hyper@anchor\@undefined
\let\contentsline\oldcontentsline
\let\newlabel\oldnewlabel
\fi}
\fi}
\global\let\hyper@last\relax 
\gdef\HyperFirstAtBeginDocument#1{#1}
\providecommand\HyField@AuxAddToFields[1]{}
\providecommand\HyField@AuxAddToCoFields[2]{}
\AC@reset@newl@bel
\newacro{AR}[\AC@hyperlink{AR}{AR}]{Augmented Reality}
\newacro{HMD}[\AC@hyperlink{HMD}{HMD}]{Head-Mounted Display}
\newacro{MR}[\AC@hyperlink{MR}{MR}]{Mixed Reality}
\newacro{VR}[\AC@hyperlink{VR}{VR}]{Virtual Reality}
\newacro{ZKM}[\AC@hyperlink{ZKM}{ZKM}]{Zentrum f\IeC {\"u}r Kunst und Medien Karlsruhe }
\newacro{SDK}[\AC@hyperlink{SDK}{SDK}]{Software Development Kit}
\@input{chapters/01_einleitung.aux}
\@input{chapters/arcore.aux}
\@input{chapters/02_city.aux}
\@input{chapters/03_networking.aux}
\@input{chapters/04_evaluation.aux}
\@input{chapters/05_setup.aux}
\@input{chapters/06_fazit.aux}
\bibstyle{plain}
\bibcite{bib:russel_norvig}{1}
