\relax 
\providecommand\hyper@newdestlabel[2]{}
\@writefile{toc}{\contentsline {section}{\numberline {1}Einleitung}{7}{section.5}}
\AC@undonewlabel{acro:VR}
\newlabel{acro:VR}{{1}{7}{Einleitung}{section*.8}{}}
\acronymused{VR}
\acronymused{VR}
\acronymused{VR}
\@writefile{toc}{\contentsline {subsection}{\numberline {1.1}Aufgabenstellung}{7}{subsection.10}}
\acronymused{VR}
\AC@undonewlabel{acro:AR}
\newlabel{acro:AR}{{1.1}{7}{Aufgabenstellung}{section*.11}{}}
\acronymused{AR}
\acronymused{AR}
\AC@undonewlabel{acro:ZKM}
\newlabel{acro:ZKM}{{1}{7}{}{section*.7}{}}
\acronymused{ZKM}
\@setckpt{chapters/01_einleitung}{
\setcounter{page}{8}
\setcounter{equation}{0}
\setcounter{enumi}{0}
\setcounter{enumii}{0}
\setcounter{enumiii}{0}
\setcounter{enumiv}{0}
\setcounter{footnote}{2}
\setcounter{mpfootnote}{0}
\setcounter{parentequation}{0}
\setcounter{part}{0}
\setcounter{section}{1}
\setcounter{subsection}{1}
\setcounter{subsubsection}{0}
\setcounter{paragraph}{0}
\setcounter{subparagraph}{0}
\setcounter{figure}{0}
\setcounter{table}{0}
\setcounter{Item}{0}
\setcounter{Hfootnote}{2}
\setcounter{bookmark@seq@number}{2}
\setcounter{float@type}{4}
\setcounter{ContinuedFloat}{0}
\setcounter{subfigure}{0}
\setcounter{lofdepth}{1}
\setcounter{subtable}{0}
\setcounter{lotdepth}{1}
\setcounter{@todonotes@numberoftodonotes}{0}
\setcounter{section@level}{2}
}
