\relax 
\providecommand\hyper@newdestlabel[2]{}
\@writefile{toc}{\contentsline {section}{\numberline {3}Konzept und Terminologie des Stadtaufbaus}{10}{section.19}}
\@writefile{toc}{\contentsline {subsection}{\numberline {3.1}Terminologie}{10}{subsection.20}}
\@writefile{lof}{\contentsline {figure}{\numberline {2}{\ignorespaces Beziehung zwischen den wichtigsten Objekten f\IeC {\"u}r den Stadtaufbau\relax }}{10}{figure.caption.21}}
\newlabel{fig:beziehung_stadt}{{2}{10}{Beziehung zwischen den wichtigsten Objekten für den Stadtaufbau\relax }{figure.caption.21}{}}
\@writefile{toc}{\contentsline {paragraph}{Room}{10}{section*.22}}
\@writefile{toc}{\contentsline {paragraph}{Chunk}{10}{section*.23}}
\@writefile{lof}{\contentsline {figure}{\numberline {3}{\ignorespaces Screenshot aus dem Unreal Editor, Room und Chunks\relax }}{11}{figure.caption.24}}
\newlabel{fig:screenshot_room}{{3}{11}{Screenshot aus dem Unreal Editor, Room und Chunks\relax }{figure.caption.24}{}}
\@writefile{toc}{\contentsline {paragraph}{ChunkBuilding}{11}{section*.25}}
\@writefile{lof}{\contentsline {figure}{\numberline {4}{\ignorespaces Beispiel eines ChunkBuildings\relax }}{11}{figure.caption.26}}
\newlabel{fig:chunkbuilding}{{4}{11}{Beispiel eines ChunkBuildings\relax }{figure.caption.26}{}}
\@writefile{toc}{\contentsline {paragraph}{Building}{11}{section*.27}}
\@writefile{toc}{\contentsline {paragraph}{BuildingBlock}{11}{section*.28}}
\@writefile{toc}{\contentsline {paragraph}{Kalibierungspunkt}{12}{section*.29}}
\@writefile{toc}{\contentsline {subsection}{\numberline {3.2}Stadtaufbau}{12}{subsection.30}}
\@writefile{toc}{\contentsline {subsection}{\numberline {3.3}Interaktionsm\IeC {\"o}glichkeiten mit der Stadt}{12}{subsection.31}}
\@writefile{lof}{\contentsline {figure}{\numberline {5}{\ignorespaces Illustration der Zerst\IeC {\"o}rung eines BuildingBlocks\relax }}{12}{figure.caption.32}}
\newlabel{fig:buildingblock_destroy}{{5}{12}{Illustration der Zerstörung eines BuildingBlocks\relax }{figure.caption.32}{}}
\@writefile{toc}{\contentsline {subsection}{\numberline {3.4}Materials der BuildingBlocks}{12}{subsection.33}}
\@writefile{toc}{\contentsline {subsection}{\numberline {3.5}Screenflow}{12}{subsection.34}}
\@setckpt{chapters/02_city}{
\setcounter{page}{13}
\setcounter{equation}{0}
\setcounter{enumi}{0}
\setcounter{enumii}{0}
\setcounter{enumiii}{0}
\setcounter{enumiv}{0}
\setcounter{footnote}{2}
\setcounter{mpfootnote}{0}
\setcounter{parentequation}{0}
\setcounter{part}{0}
\setcounter{section}{3}
\setcounter{subsection}{5}
\setcounter{subsubsection}{0}
\setcounter{paragraph}{0}
\setcounter{subparagraph}{0}
\setcounter{figure}{5}
\setcounter{table}{0}
\setcounter{Item}{0}
\setcounter{Hfootnote}{2}
\setcounter{bookmark@seq@number}{13}
\setcounter{float@type}{4}
\setcounter{ContinuedFloat}{0}
\setcounter{subfigure}{0}
\setcounter{lofdepth}{1}
\setcounter{subtable}{0}
\setcounter{lotdepth}{1}
\setcounter{@todonotes@numberoftodonotes}{0}
\setcounter{section@level}{2}
}
