\relax 
\providecommand\hyper@newdestlabel[2]{}
\@writefile{toc}{\contentsline {section}{\numberline {4}Multiuser-Experience}{13}{section.35}}
\@writefile{toc}{\contentsline {subsection}{\numberline {4.1}Realisierungsm\IeC {\"o}glichkeit 1: Cloud Anchors}{13}{subsection.36}}
\@writefile{toc}{\contentsline {subsection}{\numberline {4.2}Realisierungsm\IeC {\"o}glichkeit 2: Unreal Networking Feature}{13}{subsection.37}}
\@writefile{toc}{\contentsline {subsubsection}{\numberline {4.2.1}Actor Replication}{13}{subsubsection.38}}
\@writefile{toc}{\contentsline {paragraph}{Property Updates}{14}{section*.39}}
\@writefile{toc}{\contentsline {paragraph}{Remote Procedure Calls}{14}{section*.40}}
\@writefile{toc}{\contentsline {subsubsection}{\numberline {4.2.2}Gameplay-Klassen}{14}{subsubsection.41}}
\@writefile{toc}{\contentsline {paragraph}{GameInstance}{14}{section*.42}}
\@writefile{toc}{\contentsline {paragraph}{GameMode}{14}{section*.43}}
\@writefile{toc}{\contentsline {paragraph}{GameState}{14}{section*.44}}
\@writefile{toc}{\contentsline {paragraph}{PlayerController}{15}{section*.45}}
\@writefile{toc}{\contentsline {paragraph}{PlayerState}{15}{section*.46}}
\@writefile{toc}{\contentsline {paragraph}{Pawn}{15}{section*.47}}
\@writefile{lof}{\contentsline {figure}{\numberline {6}{\ignorespaces \IeC {\"U}bersicht aller wichtigen Gameplay-Klassen in Multiplayer-Spielen\relax }}{15}{figure.caption.48}}
\newlabel{fig:multiplayervenn}{{6}{15}{Übersicht aller wichtigen Gameplay-Klassen in Multiplayer-Spielen\relax }{figure.caption.48}{}}
\@writefile{toc}{\contentsline {subsubsection}{\numberline {4.2.3}Arten von Servern}{15}{subsubsection.49}}
\@writefile{toc}{\contentsline {paragraph}{Dedicated Server}{15}{section*.50}}
\@writefile{toc}{\contentsline {paragraph}{Listen Server}{15}{section*.51}}
\@writefile{toc}{\contentsline {subsection}{\numberline {4.3}Umsetzung mit Unreal Networking Feature}{16}{subsection.52}}
\@setckpt{chapters/03_networking}{
\setcounter{page}{17}
\setcounter{equation}{0}
\setcounter{enumi}{0}
\setcounter{enumii}{0}
\setcounter{enumiii}{0}
\setcounter{enumiv}{0}
\setcounter{footnote}{2}
\setcounter{mpfootnote}{0}
\setcounter{parentequation}{0}
\setcounter{part}{0}
\setcounter{section}{4}
\setcounter{subsection}{3}
\setcounter{subsubsection}{0}
\setcounter{paragraph}{0}
\setcounter{subparagraph}{0}
\setcounter{figure}{6}
\setcounter{table}{0}
\setcounter{Item}{0}
\setcounter{Hfootnote}{2}
\setcounter{bookmark@seq@number}{20}
\setcounter{float@type}{4}
\setcounter{ContinuedFloat}{0}
\setcounter{subfigure}{0}
\setcounter{lofdepth}{1}
\setcounter{subtable}{0}
\setcounter{lotdepth}{1}
\setcounter{@todonotes@numberoftodonotes}{0}
\setcounter{section@level}{2}
}
