\relax 
\providecommand\hyper@newdestlabel[2]{}
\@writefile{toc}{\contentsline {section}{\numberline {6}Setup der Entwicklungsumgebung}{18}{section.54}}
\@writefile{toc}{\contentsline {subsection}{\numberline {6.1}Unreal Engine mit ARCore}{18}{subsection.55}}
\@writefile{toc}{\contentsline {subsection}{\numberline {6.2}Deployment der App}{18}{subsection.56}}
\@setckpt{chapters/05_setup}{
\setcounter{page}{19}
\setcounter{equation}{0}
\setcounter{enumi}{0}
\setcounter{enumii}{0}
\setcounter{enumiii}{0}
\setcounter{enumiv}{0}
\setcounter{footnote}{2}
\setcounter{mpfootnote}{0}
\setcounter{parentequation}{0}
\setcounter{part}{0}
\setcounter{section}{6}
\setcounter{subsection}{2}
\setcounter{subsubsection}{0}
\setcounter{paragraph}{0}
\setcounter{subparagraph}{0}
\setcounter{figure}{6}
\setcounter{table}{0}
\setcounter{Item}{0}
\setcounter{Hfootnote}{2}
\setcounter{bookmark@seq@number}{24}
\setcounter{float@type}{4}
\setcounter{ContinuedFloat}{0}
\setcounter{subfigure}{0}
\setcounter{lofdepth}{1}
\setcounter{subtable}{0}
\setcounter{lotdepth}{1}
\setcounter{@todonotes@numberoftodonotes}{0}
\setcounter{section@level}{2}
}
