\relax 
\providecommand\hyper@newdestlabel[2]{}
\@writefile{toc}{\contentsline {section}{\numberline {2}ARCore}{8}{section.12}}
\AC@undonewlabel{acro:SDK}
\newlabel{acro:SDK}{{2}{8}{ARCore}{section*.13}{}}
\acronymused{SDK}
\acronymused{AR}
\@writefile{toc}{\contentsline {subsection}{\numberline {2.1}Ben\IeC {\"o}tigte Features}{8}{subsection.14}}
\@writefile{toc}{\contentsline {subsection}{\numberline {2.2}Funktionsweise}{8}{subsection.15}}
\@writefile{toc}{\contentsline {subsubsection}{\numberline {2.2.1}Motion Tracking}{8}{subsubsection.16}}
\@writefile{lof}{\contentsline {figure}{\numberline {1}{\ignorespaces Motion Tracking mit Feature Points\relax }}{8}{figure.caption.17}}
\providecommand*\caption@xref[2]{\@setref\relax\@undefined{#1}}
\newlabel{fig:motion_tracking}{{1}{8}{Motion Tracking mit Feature Points\relax }{figure.caption.17}{}}
\@writefile{toc}{\contentsline {subsubsection}{\numberline {2.2.2}User Interaction}{9}{subsubsection.18}}
\@setckpt{chapters/arcore}{
\setcounter{page}{10}
\setcounter{equation}{0}
\setcounter{enumi}{0}
\setcounter{enumii}{0}
\setcounter{enumiii}{0}
\setcounter{enumiv}{0}
\setcounter{footnote}{2}
\setcounter{mpfootnote}{0}
\setcounter{parentequation}{0}
\setcounter{part}{0}
\setcounter{section}{2}
\setcounter{subsection}{2}
\setcounter{subsubsection}{2}
\setcounter{paragraph}{0}
\setcounter{subparagraph}{0}
\setcounter{figure}{1}
\setcounter{table}{0}
\setcounter{Item}{0}
\setcounter{Hfootnote}{2}
\setcounter{bookmark@seq@number}{7}
\setcounter{float@type}{4}
\setcounter{ContinuedFloat}{0}
\setcounter{subfigure}{0}
\setcounter{lofdepth}{1}
\setcounter{subtable}{0}
\setcounter{lotdepth}{1}
\setcounter{@todonotes@numberoftodonotes}{0}
\setcounter{section@level}{3}
}
